{
  "images": {
  "testimages":
           [
             {"url":  "https://i.imgur.com/tGbaZCY.jpg"},
             {"url": "http://res.cloudinary.com/demo/image/upload/sample.jpg"}

          ] }


}